{
  "$schema": "http://json-schema.org/draft-07/schema#",
  "$id": "http://sorbotics.com/tsdb/ts.schema.json",
  "title": "Time Series",
  "description": "A time series stored on the Time Series Database",
  "type": "object",
  "properties": {
    "id": {
      "description": "Time Series unique identifier",
      "type": "string"
    }
  },
  "required": ["id"]
}